[
    {
        "key": "group_574d8cdd55e05",
        "title": "Terms and Conditions",
        "fields": [
            {
                "key": "field_575156cc0abf2",
                "label": "Show Terms and Conditions",
                "name": "show_terms_and_conditions",
                "type": "true_false",
                "instructions": "",
                "required": 0,
                "conditional_logic": 0,
                "wrapper": {
                    "width": "",
                    "class": "",
                    "id": ""
                },
                "message": "",
                "default_value": 1
            },
            {
                "key": "field_574d8cf1b8848",
                "label": "Popup Title",
                "name": "terms_popup_title",
                "type": "text",
                "instructions": "",
                "required": 0,
                "conditional_logic": [
                    [
                        {
                            "field": "field_575156cc0abf2",
                            "operator": "==",
                            "value": "1"
                        }
                    ]
                ],
                "wrapper": {
                    "width": "",
                    "class": "",
                    "id": ""
                },
                "default_value": "",
                "placeholder": "",
                "prepend": "",
                "append": "",
                "maxlength": "",
                "readonly": 0,
                "disabled": 0
            },
            {
                "key": "field_574d8d22b8849",
                "label": "Popup Content",
                "name": "terms_popup_content",
                "type": "flexible_content",
                "instructions": "",
                "required": 0,
                "conditional_logic": [
                    [
                        {
                            "field": "field_575156cc0abf2",
                            "operator": "==",
                            "value": "1"
                        }
                    ]
                ],
                "wrapper": {
                    "width": "",
                    "class": "",
                    "id": ""
                },
                "button_label": "Add Content",
                "min": "",
                "max": "",
                "layouts": [
                    {
                        "key": "574d8d3798c9a",
                        "name": "popup_heading",
                        "label": "Heading",
                        "display": "block",
                        "sub_fields": [
                            {
                                "key": "field_574d8d47b884a",
                                "label": "Heading",
                                "name": "heading",
                                "type": "text",
                                "instructions": "",
                                "required": "",
                                "conditional_logic": "",
                                "wrapper": {
                                    "width": "",
                                    "class": "",
                                    "id": ""
                                },
                                "default_value": "",
                                "placeholder": "",
                                "prepend": "",
                                "append": "",
                                "maxlength": "",
                                "readonly": 0,
                                "disabled": 0
                            }
                        ],
                        "min": "",
                        "max": ""
                    },
                    {
                        "key": "574d8d62b884c",
                        "name": "popup_highlighted",
                        "label": "Highlighted",
                        "display": "block",
                        "sub_fields": [
                            {
                                "key": "field_574d8d72b884d",
                                "label": "Highlighted Paragraph",
                                "name": "highlighted_paragraph",
                                "type": "textarea",
                                "instructions": "",
                                "required": "",
                                "conditional_logic": "",
                                "wrapper": {
                                    "width": "",
                                    "class": "",
                                    "id": ""
                                },
                                "default_value": "",
                                "placeholder": "",
                                "maxlength": "",
                                "rows": 4,
                                "new_lines": "",
                                "readonly": 0,
                                "disabled": 0
                            }
                        ],
                        "min": "",
                        "max": ""
                    },
                    {
                        "key": "574d8d92b884e",
                        "name": "popup_paragraph",
                        "label": "Paragraph",
                        "display": "block",
                        "sub_fields": [
                            {
                                "key": "field_574d8da4b884f",
                                "label": "Paragraph",
                                "name": "paragraph",
                                "type": "textarea",
                                "instructions": "",
                                "required": 0,
                                "conditional_logic": 0,
                                "wrapper": {
                                    "width": "",
                                    "class": "",
                                    "id": ""
                                },
                                "default_value": "",
                                "placeholder": "",
                                "maxlength": "",
                                "rows": 4,
                                "new_lines": "br",
                                "readonly": 0,
                                "disabled": 0
                            }
                        ],
                        "min": "",
                        "max": ""
                    }
                ]
            }
        ],
        "location": [
            [
                {
                    "param": "page_type",
                    "operator": "==",
                    "value": "front_page"
                }
            ]
        ],
        "menu_order": 5,
        "position": "acf_after_title",
        "style": "default",
        "label_placement": "top",
        "instruction_placement": "label",
        "hide_on_screen": "",
        "active": 1,
        "description": ""
    }
]